AXI- vivado/axi4_lite_F.sim/sim_1/behav/xsim/axi4_lite_tb.vcd
$date
   Tue Sep 23 02:55:37 2025
$end

$version
  2025.1.0
  $dumpfile ("axi4_lite_tb.vcd") 
$end

$timescale
  1ps
$end

$scope module tb_axi4_lite_system $end
$var reg 1 ! ACLK $end
$var reg 1 " ARESETN $end
$var reg 1 # read_s $end
$var reg 1 $ write_s $end
$var reg 32 % address [31:0] $end
$var reg 32 & W_data [31:0] $end
$var wire 32 ' read_data_out [31:0] $end
$var wire 1 ( read_valid $end
$var wire 2 ) read_resp [1:0] $end
$scope module dut $end
$var wire 1 * ACLK $end
$var wire 1 + ARESETN $end
$var wire 1 , read_s $end
$var wire 1 - write_s $end
$var wire 32 . address [31:0] $end
$var wire 32 / W_data [31:0] $end
$var wire 1 0 M_ARREADY $end
$var wire 1 1 S_RVALID $end
$var wire 1 2 M_ARVALID $end
$var wire 1 3 M_RREADY $end
$var wire 1 4 S_AWREADY $end
$var wire 1 5 S_BVALID $end
$var wire 1 6 M_AWVALID $end
$var wire 1 7 M_BREADY $end
$var wire 1 8 M_WVALID $end
$var wire 1 9 S_WREADY $end
$var wire 32 : M_ARADDR [31:0] $end
$var wire 32 ; M_AWADDR [31:0] $end
$var wire 32 < M_WDATA [31:0] $end
$var wire 32 = S_RDATA [31:0] $end
$var wire 4 > M_WSTRB [3:0] $end
$var wire 2 ? S_RRESP [1:0] $end
$var wire 2 @ S_BRESP [1:0] $end
$scope module u_axi4_lite_master0 $end
$var wire 1 * ACLK $end
$var wire 1 + ARESETN $end
$var wire 1 , START_READ $end
$var wire 1 - START_WRITE $end
$var wire 32 . address [31:0] $end
$var wire 32 / W_data [31:0] $end
$var wire 1 0 M_ARREADY $end
$var wire 32 = M_RDATA [31:0] $end
$var wire 2 ? M_RRESP [1:0] $end
$var wire 1 1 M_RVALID $end
$var wire 1 4 M_AWREADY $end
$var wire 1 9 M_WREADY $end
$var wire 2 @ M_BRESP [1:0] $end
$var wire 1 5 M_BVALID $end
$var reg 32 A M_ARADDR [31:0] $end
$var reg 1 B M_ARVALID $end
$var reg 1 C M_RREADY $end
$var reg 32 D M_AWADDR [31:0] $end
$var reg 1 E M_AWVALID $end
$var reg 32 F M_WDATA [31:0] $end
$var reg 4 G M_WSTRB [3:0] $end
$var reg 1 H M_WVALID $end
$var reg 1 I M_BREADY $end
$var reg 1 J read_start $end
$var reg 1 K write_start $end
$var wire 1 L write_addr $end
$var wire 1 M write_data $end
$var reg 3 N state [2:0] $end
$var reg 3 O next_state [2:0] $end
$upscope $end
$scope module u_axi4_lite_slave0 $end
$var wire 1 * ACLK $end
$var wire 1 + ARESETN $end
$var wire 32 : S_ARADDR [31:0] $end
$var wire 1 2 S_ARVALID $end
$var wire 1 3 S_RREADY $end
$var wire 32 ; S_AWADDR [31:0] $end
$var wire 1 6 S_AWVALID $end
$var wire 32 < S_WDATA [31:0] $end
$var wire 4 > S_WSTRB [3:0] $end
$var wire 1 8 S_WVALID $end
$var wire 1 7 S_BREADY $end
$var reg 1 P S_ARREADY $end
$var reg 32 Q S_RDATA [31:0] $end
$var reg 2 R S_RRESP [1:0] $end
$var reg 1 S S_RVALID $end
$var reg 1 T S_AWREADY $end
$var reg 1 U S_WREADY $end
$var reg 2 V S_BRESP [1:0] $end
$var reg 1 W S_BVALID $end
$var reg 32 X addr [31:0] $end
$var wire 1 Y write_addr $end
$var wire 1 Z write_data $end
$var reg 3 [ state [2:0] $end
$var reg 3 \ next_state [2:0] $end
$var integer 32 ] i [31:0] $end
$upscope $end
$upscope $end
$scope task write_transaction $end
$upscope $end
$scope task read_transaction $end
$upscope $end
$scope task idle_period $end
$upscope $end
$upscope $end
$enddefinitions $end

#0
$dumpvars
0!
0"
0#
0$
b0 %
b0 &
bx '
x(
bx )
0*
0+
0,
0-
b0 .
b0 /
x0
x1
02
03
x4
x5
06
07
08
x9
b0 :
b0 ;
b0 <
bx =
b0 >
bx ?
bx @
b0 A
0B
0C
b0 D
0E
b0 F
b0 G
0H
0I
xJ
xK
0L
0M
bx N
b0 O
xP
bx Q
bx R
xS
xT
xU
bx V
xW
bx X
0Y
0Z
bx [
b0 \
bx ]
$end

#5000
1!
b0 '
0(
b0 )
1*
00
01
04
05
09
b0 =
b0 ?
b0 @
0J
0K
b0 N
0P
b0 Q
b0 R
0S
0T
0U
b0 V
0W
b0 [
b100000 ]

#10000
0!
0*

#15000
1!
1*
b100000 ]

#20000
0!
1"
0*
1+

#25000
1!
1*

#30000
0!
0*

#35000
1!
1*

#40000
0!
0*

#45000
1!
1*

#50000
0!
0*

#55000
1!
1*

#60000
0!
0*

#65000
1!
1*

#70000
0!
0*

#75000
1!
1*

#80000
0!
0*

#85000
1!
1*

#90000
0!
0*

#95000
1!
1$
b100 %
b11011110101011011011111011101111 &
1*
1-
b100 .
b11011110101011011011111011101111 /
1K
b1 O

#100000
0!
0*

#105000
1!
0$
1*
0-
16
17
18
b100 ;
b11011110101011011011111011101111 <
b1111 >
b100 D
1E
b11011110101011011011111011101111 F
b1111 G
1H
1I
0K
b1 N
b1 \

#110000
0!
0*

#115000
1!
1*
14
19
1L
1M
b10 O
1T
1U
1Y
1Z
b1 [
b10 \

#120000
0!
0*

#125000
1!
1*
04
15
06
08
09
b0 ;
b0 <
b0 >
b0 D
0E
b0 F
b0 G
0H
1I
0L
0M
b10 N
b0 O
0T
0U
1W
0Y
0Z
b10 [
b0 \

#130000
0!
0*

#135000
1!
1*
05
07
0I
b0 N
0W
b0 [

#140000
0!
0*

#145000
1!
1*

#150000
0!
0*

#155000
1!
1$
b1000 %
b10010001101000101011001111000 &
1*
1-
b1000 .
b10010001101000101011001111000 /
1K
b1 O

#160000
0!
0*

#165000
1!
0$
1*
0-
16
17
18
b1000 ;
b10010001101000101011001111000 <
b1111 >
b1000 D
1E
b10010001101000101011001111000 F
b1111 G
1H
1I
0K
b1 N
b1 \

#170000
0!
0*

#175000
1!
1*
14
19
1L
1M
b10 O
1T
1U
1Y
1Z
b1 [
b10 \

#180000
0!
0*

#185000
1!
1*
04
15
06
08
09
b0 ;
b0 <
b0 >
b0 D
0E
b0 F
b0 G
0H
1I
0L
0M
b10 N
b0 O
0T
0U
1W
0Y
0Z
b10 [
b0 \

#190000
0!
0*

#195000
1!
1*
05
07
0I
b0 N
0W
b0 [

#200000
0!
0*

#205000
1!
1*

#210000
0!
0*

#215000
1!
1#
b100 %
1*
1,
b100 .
1J
b11 O

#220000
0!
0*

#225000
1!
0#
1*
0,
12
13
b100 :
b100 A
1B
1C
0J
b11 N
b11 \

#230000
0!
0*

#235000
1!
1*
10
b100 O
1P
b11 [
b100 \

#240000
0!
0*

#245000
1!
b11011110101011011011111011101111 '
1(
1*
00
11
02
b0 :
b11011110101011011011111011101111 =
b0 A
0B
1C
b100 N
b0 O
0P
b11011110101011011011111011101111 Q
1S
b100 X
b100 [
b0 \

#250000
0!
0*

#255000
1!
b0 '
0(
1*
01
03
b0 =
0C
b0 N
b0 Q
0S
b0 [

#260000
0!
0*

#265000
1!
1*

#270000
0!
0*

#275000
1!
1$
b1100 %
b10101011110011011110111100000000 &
1*
1-
b1100 .
b10101011110011011110111100000000 /
1K
b1 O

#280000
0!
0*

#285000
1!
0$
1*
0-
16
17
18
b1100 ;
b10101011110011011110111100000000 <
b1111 >
b1100 D
1E
b10101011110011011110111100000000 F
b1111 G
1H
1I
0K
b1 N
b1 \

#290000
0!
0*

#295000
1!
1*
14
19
1L
1M
b10 O
1T
1U
1Y
1Z
b1 [
b10 \

#300000
0!
0*

#305000
1!
1*
04
15
06
08
09
b0 ;
b0 <
b0 >
b0 D
0E
b0 F
b0 G
0H
1I
0L
0M
b10 N
b0 O
0T
0U
1W
0Y
0Z
b10 [
b0 \

#310000
0!
0*

#315000
1!
1*
05
07
0I
b0 N
0W
b0 [

#320000
0!
0*

#325000
1!
1*

#330000
0!
0*

#335000
1!
1*

#340000
0!
0*

#345000
1!
1*

#350000
0!
0*

#355000
1!
1*

#360000
0!
0*

#365000
1!
1*

#370000
0!
0*

#375000
1!
1*

#380000
0!
0*

#385000
1!
1#
b1000 %
1*
1,
b1000 .
1J
b11 O

#390000
0!
0*

#395000
1!
0#
1*
0,
12
13
b1000 :
b1000 A
1B
1C
0J
b11 N
b11 \

#400000
0!
0*

#405000
1!
1*
10
b100 O
1P
b11 [
b100 \

#410000
0!
0*

#415000
1!
b10010001101000101011001111000 '
1(
1*
00
11
02
b0 :
b10010001101000101011001111000 =
b0 A
0B
1C
b100 N
b0 O
0P
b10010001101000101011001111000 Q
1S
b1000 X
b100 [
b0 \

#420000
0!
0*

#425000
1!
b0 '
0(
1*
01
03
b0 =
0C
b0 N
b0 Q
0S
b0 [

#430000
0!
0*

#435000
1!
1*

#440000
0!
0*

#445000
1!
1$
b10000 %
b10000111011001010100001100100001 &
1*
1-
b10000 .
b10000111011001010100001100100001 /
1K
b1 O

#450000
0!
0*

#455000
1!
0$
1*
0-
16
17
18
b10000 ;
b10000111011001010100001100100001 <
b1111 >
b10000 D
1E
b10000111011001010100001100100001 F
b1111 G
1H
1I
0K
b1 N
b1 \

#460000
0!
0*

#465000
1!
1*
14
19
1L
1M
b10 O
1T
1U
1Y
1Z
b1 [
b10 \

#470000
0!
0*

#475000
1!
1*
04
15
06
08
09
b0 ;
b0 <
b0 >
b0 D
0E
b0 F
b0 G
0H
1I
0L
0M
b10 N
b0 O
0T
0U
1W
0Y
0Z
b10 [
b0 \

#480000
0!
0*

#485000
1!
1*
05
07
0I
b0 N
0W
b0 [

#490000
0!
0*

#495000
1!
1*

#500000
0!
0*

#505000
1!
1*

#510000
0!
0*

#515000
1!
1*

#520000
0!
0*

#525000
1!
1*

#530000
0!
0*

#535000
1!
1*

#540000
0!
0*

#545000
1!
1*

#550000
0!
0*

#555000
1!
1#
b100 %
1*
1,
b100 .
1J
b11 O

#560000
0!
0*

#565000
1!
0#
1*
0,
12
13
b100 :
b100 A
1B
1C
0J
b11 N
b11 \

#570000
0!
0*

#575000
1!
1*
10
b100 O
1P
b11 [
b100 \

#580000
0!
0*

#585000
1!
b11011110101011011011111011101111 '
1(
1*
00
11
02
b0 :
b11011110101011011011111011101111 =
b0 A
0B
1C
b100 N
b0 O
0P
b11011110101011011011111011101111 Q
1S
b100 X
b100 [
b0 \

#590000
0!
0*

#595000
1!
b0 '
0(
1*
01
03
b0 =
0C
b0 N
b0 Q
0S
b0 [

#600000
0!
0*

#605000
1!
1*

#610000
0!
0*

#615000
1!
1#
b1000 %
1*
1,
b1000 .
1J
b11 O

#620000
0!
0*

#625000
1!
0#
1*
0,
12
13
b1000 :
b1000 A
1B
1C
0J
b11 N
b11 \

#630000
0!
0*

#635000
1!
1*
10
b100 O
1P
b11 [
b100 \

#640000
0!
0*

#645000
1!
b10010001101000101011001111000 '
1(
1*
00
11
02
b0 :
b10010001101000101011001111000 =
b0 A
0B
1C
b100 N
b0 O
0P
b10010001101000101011001111000 Q
1S
b1000 X
b100 [
b0 \

#650000
0!
0*

#655000
1!
b0 '
0(
1*
01
03
b0 =
0C
b0 N
b0 Q
0S
b0 [

#660000
0!
0*

#665000
1!
1*

#670000
0!
0*

#675000
1!
1#
b1100 %
1*
1,
b1100 .
1J
b11 O

#680000
0!
0*

#685000
1!
0#
1*
0,
12
13
b1100 :
b1100 A
1B
1C
0J
b11 N
b11 \

#690000
0!
0*

#695000
1!
1*
10
b100 O
1P
b11 [
b100 \

#700000
0!
0*

#705000
1!
b10101011110011011110111100000000 '
1(
1*
00
11
02
b0 :
b10101011110011011110111100000000 =
b0 A
0B
1C
b100 N
b0 O
0P
b10101011110011011110111100000000 Q
1S
b1100 X
b100 [
b0 \

#710000
0!
0*

#715000
1!
b0 '
0(
1*
01
03
b0 =
0C
b0 N
b0 Q
0S
b0 [

#720000
0!
0*

#725000
1!
1*

#730000
0!
0*

#735000
1!
1#
b10000 %
1*
1,
b10000 .
1J
b11 O

#740000
0!
0*

#745000
1!
0#
1*
0,
12
13
b10000 :
b10000 A
1B
1C
0J
b11 N
b11 \

#750000
0!
0*

#755000
1!
1*
10
b100 O
1P
b11 [
b100 \

#760000
0!
0*

#765000
1!
b10000111011001010100001100100001 '
1(
1*
00
11
02
b0 :
b10000111011001010100001100100001 =
b0 A
0B
1C
b100 N
b0 O
0P
b10000111011001010100001100100001 Q
1S
b10000 X
b100 [
b0 \

#770000
0!
0*

#775000
1!
b0 '
0(
1*
01
03
b0 =
0C
b0 N
b0 Q
0S
b0 [

