AXI- vivado/axi4_lite_F.sim/sim_1/behav/xsim/axi4_lite_test.vcd
$date
   Tue Sep 23 22:43:07 2025
$end

$version
  2025.1.0
  $dumpfile ("axi4_lite_test.vcd") 
$end

$timescale
  1ps
$end

$scope module tb_axi4_lite_top $end
$var reg 1 ! ACLK $end
$var reg 1 " ARESETN $end
$var reg 1 # read_s $end
$var reg 1 $ write_s $end
$var reg 32 % address [31:0] $end
$var reg 32 & W_data [31:0] $end
$var reg 32 ' captured_read_data [31:0] $end
$var reg 1 ( read_data_valid $end
$var reg 32 ) expected_read_data [31:0] $end
$scope module uut $end
$var wire 1 * ACLK $end
$var wire 1 + ARESETN $end
$var wire 1 , read_s $end
$var wire 1 - write_s $end
$var wire 32 . address [31:0] $end
$var wire 32 / W_data [31:0] $end
$var wire 1 0 M_ARREADY $end
$var wire 1 1 S_RVALID $end
$var wire 1 2 M_ARVALID $end
$var wire 1 3 M_RREADY $end
$var wire 1 4 S_AWREADY $end
$var wire 1 5 S_BVALID $end
$var wire 1 6 M_AWVALID $end
$var wire 1 7 M_BREADY $end
$var wire 1 8 M_WVALID $end
$var wire 1 9 S_WREADY $end
$var wire 32 : M_ARADDR [31:0] $end
$var wire 32 ; M_AWADDR [31:0] $end
$var wire 32 < M_WDATA [31:0] $end
$var wire 32 = S_RDATA [31:0] $end
$var wire 4 > M_WSTRB [3:0] $end
$var wire 2 ? S_RRESP [1:0] $end
$var wire 2 @ S_BRESP [1:0] $end
$scope module u_axi4_lite_master0 $end
$var wire 1 * ACLK $end
$var wire 1 + ARESETN $end
$var wire 1 , START_READ $end
$var wire 1 - START_WRITE $end
$var wire 32 . address [31:0] $end
$var wire 32 / W_data [31:0] $end
$var wire 1 0 M_ARREADY $end
$var wire 32 = M_RDATA [31:0] $end
$var wire 2 ? M_RRESP [1:0] $end
$var wire 1 1 M_RVALID $end
$var wire 1 4 M_AWREADY $end
$var wire 1 9 M_WREADY $end
$var wire 2 @ M_BRESP [1:0] $end
$var wire 1 5 M_BVALID $end
$var reg 32 A M_ARADDR [31:0] $end
$var reg 1 B M_ARVALID $end
$var reg 1 C M_RREADY $end
$var reg 32 D M_AWADDR [31:0] $end
$var reg 1 E M_AWVALID $end
$var reg 32 F M_WDATA [31:0] $end
$var reg 4 G M_WSTRB [3:0] $end
$var reg 1 H M_WVALID $end
$var reg 1 I M_BREADY $end
$var reg 1 J read_start $end
$var reg 1 K write_start $end
$var wire 1 L write_addr $end
$var wire 1 M write_data $end
$var reg 3 N state [2:0] $end
$var reg 3 O next_state [2:0] $end
$upscope $end
$scope module u_axi4_lite_slave0 $end
$var wire 1 * ACLK $end
$var wire 1 + ARESETN $end
$var wire 32 : S_ARADDR [31:0] $end
$var wire 1 2 S_ARVALID $end
$var wire 1 3 S_RREADY $end
$var wire 32 ; S_AWADDR [31:0] $end
$var wire 1 6 S_AWVALID $end
$var wire 32 < S_WDATA [31:0] $end
$var wire 4 > S_WSTRB [3:0] $end
$var wire 1 8 S_WVALID $end
$var wire 1 7 S_BREADY $end
$var reg 1 P S_ARREADY $end
$var reg 32 Q S_RDATA [31:0] $end
$var reg 2 R S_RRESP [1:0] $end
$var reg 1 S S_RVALID $end
$var reg 1 T S_AWREADY $end
$var reg 1 U S_WREADY $end
$var reg 2 V S_BRESP [1:0] $end
$var reg 1 W S_BVALID $end
$var reg 32 X addr [31:0] $end
$var wire 1 Y write_addr $end
$var wire 1 Z write_data $end
$var reg 3 [ state [2:0] $end
$var reg 3 \ next_state [2:0] $end
$var integer 32 ] i [31:0] $end
$upscope $end
$upscope $end
$scope task write_transaction $end
$var reg 32 ^ addr [31:0] $end
$var reg 32 _ data [31:0] $end
$upscope $end
$scope task read_transaction_with_check $end
$var reg 32 ` addr [31:0] $end
$var reg 32 a expected_data [31:0] $end
$upscope $end
$scope task wait_for_write_complete $end
$upscope $end
$scope task wait_for_read_data $end
$upscope $end
$scope task monitor_signals $end
$upscope $end
$scope function get_master_state_name $end
$var reg 128 b get_master_state_name [127:0] $end
$var reg 3 c state [2:0] $end
$upscope $end
$scope function get_slave_state_name $end
$var reg 128 d get_slave_state_name [127:0] $end
$var reg 3 e state [2:0] $end
$upscope $end
$scope task display_axi_channels $end
$upscope $end
$upscope $end
$enddefinitions $end

#0
$dumpvars
0!
0"
0#
0$
b0 %
b0 &
b0 '
0(
b0 )
0*
0+
0,
0-
b0 .
b0 /
x0
x1
02
03
x4
x5
06
07
08
x9
b0 :
b0 ;
b0 <
bx =
b0 >
bx ?
bx @
b0 A
0B
0C
b0 D
0E
b0 F
b0 G
0H
0I
xJ
xK
0L
0M
bx N
b0 O
xP
bx Q
bx R
xS
xT
xU
bx V
xW
bx X
0Y
0Z
bx [
b0 \
bx ]
bx ^
bx _
bx `
bx a
bx b
bx c
bx d
bx e
$end

#5000
1!
1*
00
01
04
05
09
b0 =
b0 ?
b0 @
0J
0K
b0 N
0P
b0 Q
b0 R
0S
0T
0U
b0 V
0W
b0 [
b100000 ]

#10000
0!
0*

#15000
1!
1*
b100000 ]

#20000
0!
1"
0*
1+

#25000
1!
1*

#30000
0!
0*

#35000
1!
1*

#40000
0!
0*

#45000
1!
1*

#50000
0!
0*
b100 ^
b11011110101011011011111011101111 _

#55000
1!
1$
b100 %
b11011110101011011011111011101111 &
1*
1-
b100 .
b11011110101011011011111011101111 /
1K
b1 O

#60000
0!
0*

#65000
1!
0$
1*
0-
16
17
18
b100 ;
b11011110101011011011111011101111 <
b1111 >
b100 D
1E
b11011110101011011011111011101111 F
b1111 G
1H
1I
0K
b1 N
b1 \

#70000
0!
0*

#75000
1!
1*
14
19
1L
1M
b10 O
1T
1U
1Y
1Z
b1 [
b10 \
b1010111010100100100100101010100010001010101111101000011010010000100000101001110010011100100010101001100 b
b1 c
b1001001010001000100110001000101 d
b0 e

#80000
0!
0*

#85000
1!
1*
04
15
06
08
09
b0 ;
b0 <
b0 >
b0 D
0E
b0 F
b0 G
0H
1I
0L
0M
b10 N
b0 O
0T
0U
1W
0Y
0Z
b10 [
b0 \
b1010111010100100100100101010100010001010101111101000011010010000100000101001110010011100100010101001100 d
b1 e

#90000
0!
0*

#95000
1!
1*
05
07
0I
b0 N
0W
b0 [
b1000 ^
b11001010111111101011101010111110 _
b1010111010100100100010101010011010100000101111101000011010010000100000101001110010011100100010101001100 b
b10 c
b1010111010100100100010101010011010100000101111101000011010010000100000101001110010011100100010101001100 d
b10 e

#100000
0!
0*

#105000
1!
1$
b1000 %
b11001010111111101011101010111110 &
1*
1-
b1000 .
b11001010111111101011101010111110 /
1K
b1 O

#110000
0!
0*

#115000
1!
0$
1*
0-
16
17
18
b1000 ;
b11001010111111101011101010111110 <
b1111 >
b1000 D
1E
b11001010111111101011101010111110 F
b1111 G
1H
1I
0K
b1 N
b1 \

#120000
0!
0*

#125000
1!
1*
14
19
1L
1M
b10 O
1T
1U
1Y
1Z
b1 [
b10 \
b1010111010100100100100101010100010001010101111101000011010010000100000101001110010011100100010101001100 b
b1 c
b1001001010001000100110001000101 d
b0 e

#130000
0!
0*

#135000
1!
1*
04
15
06
08
09
b0 ;
b0 <
b0 >
b0 D
0E
b0 F
b0 G
0H
1I
0L
0M
b10 N
b0 O
0T
0U
1W
0Y
0Z
b10 [
b0 \
b1010111010100100100100101010100010001010101111101000011010010000100000101001110010011100100010101001100 d
b1 e

#140000
0!
0*

#145000
1!
b11011110101011011011111011101111 )
1*
05
07
0I
b0 N
0W
b0 [
b100 `
b11011110101011011011111011101111 a
b1010111010100100100010101010011010100000101111101000011010010000100000101001110010011100100010101001100 b
b10 c
b1010111010100100100010101010011010100000101111101000011010010000100000101001110010011100100010101001100 d
b10 e

#150000
0!
0*

#155000
1!
1#
b100 %
1*
1,
b100 .
1J
b11 O

#160000
0!
0*

#165000
1!
0#
1*
0,
12
13
b100 :
b100 A
1B
1C
0J
b11 N
b11 \

#170000
0!
0*

#175000
1!
1*
10
b100 O
1P
b11 [
b100 \
b1010010010000010100010001000100010100100101111101000011010010000100000101001110010011100100010101001100 b
b11 c
b1001001010001000100110001000101 d
b0 e

#180000
0!
0*

#185000
1!
b11011110101011011011111011101111 '
1(
1*
00
11
02
b0 :
b11011110101011011011111011101111 =
b0 A
0B
1C
b100 N
b0 O
0P
b11011110101011011011111011101111 Q
1S
b100 X
b100 [
b0 \
b1010010010000010100010001000100010100100101111101000011010010000100000101001110010011100100010101001100 d
b11 e

#190000
0!
0*

#195000
1!
0(
1*
01
03
b0 =
0C
b0 N
b0 Q
0S
b0 [
b1100 ^
b10010001101000101011001111000 _
b1010010010001000100000101010100010000010101111101000011010010000100000101001110010011100100010101001100 b
b100 c
b1010010010001000100000101010100010000010101111101000011010010000100000101001110010011100100010101001100 d
b100 e

#200000
0!
0*

#205000
1!
1$
b1100 %
b10010001101000101011001111000 &
1*
1-
b1100 .
b10010001101000101011001111000 /
1K
b1 O

#210000
0!
0*

#215000
1!
0$
1*
0-
16
17
18
b1100 ;
b10010001101000101011001111000 <
b1111 >
b1100 D
1E
b10010001101000101011001111000 F
b1111 G
1H
1I
0K
b1 N
b1 \

#220000
0!
0*

#225000
1!
1*
14
19
1L
1M
b10 O
1T
1U
1Y
1Z
b1 [
b10 \
b1010111010100100100100101010100010001010101111101000011010010000100000101001110010011100100010101001100 b
b1 c
b1001001010001000100110001000101 d
b0 e

#230000
0!
0*

#235000
1!
1*
04
15
06
08
09
b0 ;
b0 <
b0 >
b0 D
0E
b0 F
b0 G
0H
1I
0L
0M
b10 N
b0 O
0T
0U
1W
0Y
0Z
b10 [
b0 \
b1010111010100100100100101010100010001010101111101000011010010000100000101001110010011100100010101001100 d
b1 e

#240000
0!
0*

#245000
1!
b11001010111111101011101010111110 )
1*
05
07
0I
b0 N
0W
b0 [
b1000 `
b11001010111111101011101010111110 a
b1010111010100100100010101010011010100000101111101000011010010000100000101001110010011100100010101001100 b
b10 c
b1010111010100100100010101010011010100000101111101000011010010000100000101001110010011100100010101001100 d
b10 e

#250000
0!
0*

#255000
1!
1#
b1000 %
1*
1,
b1000 .
1J
b11 O

#260000
0!
0*

#265000
1!
0#
1*
0,
12
13
b1000 :
b1000 A
1B
1C
0J
b11 N
b11 \

#270000
0!
0*

#275000
1!
1*
10
b100 O
1P
b11 [
b100 \
b1010010010000010100010001000100010100100101111101000011010010000100000101001110010011100100010101001100 b
b11 c
b1001001010001000100110001000101 d
b0 e

#280000
0!
0*

#285000
1!
b11001010111111101011101010111110 '
1(
1*
00
11
02
b0 :
b11001010111111101011101010111110 =
b0 A
0B
1C
b100 N
b0 O
0P
b11001010111111101011101010111110 Q
1S
b1000 X
b100 [
b0 \
b1010010010000010100010001000100010100100101111101000011010010000100000101001110010011100100010101001100 d
b11 e

#290000
0!
0*

#295000
1!
0(
1*
01
03
b0 =
0C
b0 N
b0 Q
0S
b0 [
b10000 ^
b10000111011001010100001100100001 _
b1010010010001000100000101010100010000010101111101000011010010000100000101001110010011100100010101001100 b
b100 c
b1010010010001000100000101010100010000010101111101000011010010000100000101001110010011100100010101001100 d
b100 e

#300000
0!
0*

#305000
1!
1$
b10000 %
b10000111011001010100001100100001 &
1*
1-
b10000 .
b10000111011001010100001100100001 /
1K
b1 O

#310000
0!
0*

#315000
1!
0$
1*
0-
16
17
18
b10000 ;
b10000111011001010100001100100001 <
b1111 >
b10000 D
1E
b10000111011001010100001100100001 F
b1111 G
1H
1I
0K
b1 N
b1 \

#320000
0!
0*

#325000
1!
1*
14
19
1L
1M
b10 O
1T
1U
1Y
1Z
b1 [
b10 \
b1010111010100100100100101010100010001010101111101000011010010000100000101001110010011100100010101001100 b
b1 c
b1001001010001000100110001000101 d
b0 e

#330000
0!
0*

#335000
1!
1*
04
15
06
08
09
b0 ;
b0 <
b0 >
b0 D
0E
b0 F
b0 G
0H
1I
0L
0M
b10 N
b0 O
0T
0U
1W
0Y
0Z
b10 [
b0 \
b1010111010100100100100101010100010001010101111101000011010010000100000101001110010011100100010101001100 d
b1 e

#340000
0!
0*

#345000
1!
1*
05
07
0I
b0 N
0W
b0 [
b1010111010100100100010101010011010100000101111101000011010010000100000101001110010011100100010101001100 b
b10 c
b1010111010100100100010101010011010100000101111101000011010010000100000101001110010011100100010101001100 d
b10 e

