AXI- vivado/axi4_lite_F.sim/sim_1/behav/xsim/axi4_lite_waveform.vcd
$date
   Tue Sep 23 10:07:38 2025
$end

$version
  2025.1.0
  $dumpfile ("axi4_lite_waveform.vcd") 
$end

$timescale
  1ps
$end

$scope module axi4_lite_tb $end
$var reg 1 ! ACLK $end
$var reg 1 " ARESETN $end
$var reg 1 # read_s $end
$var reg 1 $ write_s $end
$var reg 32 % address [31:0] $end
$var reg 32 & W_data [31:0] $end
$var integer 32 ' transaction_count [31:0] $end
$var reg 256 ( transaction_name [255:0] $end
$scope module uut $end
$var wire 1 ) ACLK $end
$var wire 1 * ARESETN $end
$var wire 1 + read_s $end
$var wire 1 , write_s $end
$var wire 32 - address [31:0] $end
$var wire 32 . W_data [31:0] $end
$var wire 1 / M_ARREADY $end
$var wire 1 0 S_RVALID $end
$var wire 1 1 M_ARVALID $end
$var wire 1 2 M_RREADY $end
$var wire 1 3 S_AWREADY $end
$var wire 1 4 S_BVALID $end
$var wire 1 5 M_AWVALID $end
$var wire 1 6 M_BREADY $end
$var wire 1 7 M_WVALID $end
$var wire 1 8 S_WREADY $end
$var wire 32 9 M_ARADDR [31:0] $end
$var wire 32 : M_AWADDR [31:0] $end
$var wire 32 ; M_WDATA [31:0] $end
$var wire 32 < S_RDATA [31:0] $end
$var wire 4 = M_WSTRB [3:0] $end
$var wire 2 > S_RRESP [1:0] $end
$var wire 2 ? S_BRESP [1:0] $end
$scope module u_axi4_lite_master0 $end
$var wire 1 ) ACLK $end
$var wire 1 * ARESETN $end
$var wire 1 + START_READ $end
$var wire 1 , START_WRITE $end
$var wire 32 - address [31:0] $end
$var wire 32 . W_data [31:0] $end
$var wire 1 / M_ARREADY $end
$var wire 32 < M_RDATA [31:0] $end
$var wire 2 > M_RRESP [1:0] $end
$var wire 1 0 M_RVALID $end
$var wire 1 3 M_AWREADY $end
$var wire 1 8 M_WREADY $end
$var wire 2 ? M_BRESP [1:0] $end
$var wire 1 4 M_BVALID $end
$var reg 32 @ M_ARADDR [31:0] $end
$var reg 1 A M_ARVALID $end
$var reg 1 B M_RREADY $end
$var reg 32 C M_AWADDR [31:0] $end
$var reg 1 D M_AWVALID $end
$var reg 32 E M_WDATA [31:0] $end
$var reg 4 F M_WSTRB [3:0] $end
$var reg 1 G M_WVALID $end
$var reg 1 H M_BREADY $end
$var reg 1 I read_start $end
$var reg 1 J write_start $end
$var wire 1 K write_addr $end
$var wire 1 L write_data $end
$var reg 3 M state [2:0] $end
$var reg 3 N next_state [2:0] $end
$upscope $end
$scope module u_axi4_lite_slave0 $end
$var wire 1 ) ACLK $end
$var wire 1 * ARESETN $end
$var wire 32 9 S_ARADDR [31:0] $end
$var wire 1 1 S_ARVALID $end
$var wire 1 2 S_RREADY $end
$var wire 32 : S_AWADDR [31:0] $end
$var wire 1 5 S_AWVALID $end
$var wire 32 ; S_WDATA [31:0] $end
$var wire 4 = S_WSTRB [3:0] $end
$var wire 1 7 S_WVALID $end
$var wire 1 6 S_BREADY $end
$var reg 1 O S_ARREADY $end
$var reg 32 P S_RDATA [31:0] $end
$var reg 2 Q S_RRESP [1:0] $end
$var reg 1 R S_RVALID $end
$var reg 1 S S_AWREADY $end
$var reg 1 T S_WREADY $end
$var reg 2 U S_BRESP [1:0] $end
$var reg 1 V S_BVALID $end
$var reg 32 W addr [31:0] $end
$var wire 1 X write_addr $end
$var wire 1 Y write_data $end
$var reg 3 Z state [2:0] $end
$var reg 3 [ next_state [2:0] $end
$var integer 32 \ i [31:0] $end
$upscope $end
$upscope $end
$scope task perform_write $end
$var reg 32 ] addr [31:0] $end
$var reg 32 ^ data [31:0] $end
$var reg 256 _ trans_name [255:0] $end
$upscope $end
$scope task perform_read $end
$var reg 32 ` addr [31:0] $end
$var reg 32 a expected [31:0] $end
$var reg 256 b trans_name [255:0] $end
$var reg 32 c read_data [31:0] $end
$upscope $end
$scope task idle_cycles $end
$var integer 32 d cycles [31:0] $end
$var reg 256 e phase_name [255:0] $end
$var integer 32 f i [31:0] $end
$upscope $end
$upscope $end
$enddefinitions $end

#0
$dumpvars
0!
0"
0#
0$
b0 %
b0 &
b0 '
bx (
0)
0*
0+
0,
b0 -
b0 .
x/
x0
01
02
x3
x4
05
06
07
x8
b0 9
b0 :
b0 ;
bx <
b0 =
bx >
bx ?
b0 @
0A
0B
b0 C
0D
b0 E
b0 F
0G
0H
xI
xJ
0K
0L
bx M
b0 N
xO
bx P
bx Q
xR
xS
xT
bx U
xV
bx W
0X
0Y
bx Z
b0 [
bx \
bx ]
bx ^
bx _
bx `
bx a
bx b
bx c
bx d
bx e
bx f
$end

#5000
1!
1)
0/
00
03
04
08
b0 <
b0 >
b0 ?
0I
0J
b0 M
0O
b0 P
b0 Q
0R
0S
0T
b0 U
0V
b0 Z
b100000 \

#10000
0!
0)

#15000
1!
1)
b100000 \

#20000
0!
0)

#25000
1!
1)
b100000 \

#30000
0!
0)

#35000
1!
1)
b100000 \

#40000
0!
0)

#45000
1!
1"
1)
1*

#50000
0!
0)

#55000
1!
1)

#60000
0!
0)

#65000
1!
1)

#70000
0!
0)

#75000
1!
1)
b101 d
b10010010110111001101001011101000110100101100001011011000010000001001001010001000100110001000101001000000101000001101000011000010111001101100101 e
b0 f

#80000
0!
0)

#85000
1!
1)
b1 f

#90000
0!
0)

#95000
1!
1)
b10 f

#100000
0!
0)

#105000
1!
1)
b11 f

#110000
0!
0)

#115000
1!
1)
b100 f

#120000
0!
0)

#125000
1!
1$
b100 %
b10101010101110111100110011011101 &
b1 '
b1010111010100100100100101010100010001010010000001010100011100100110000101101110011100110110000101100011011101000110100101101111011011100010000000110001 (
1)
1,
b100 -
b10101010101110111100110011011101 .
1J
b1 N
b100 ]
b10101010101110111100110011011101 ^
b1010111010100100100100101010100010001010010000001010100011100100110000101101110011100110110000101100011011101000110100101101111011011100010000000110001 _
b101 f

#130000
0!
0)

#135000
1!
0$
1)
0,
15
16
17
b100 :
b10101010101110111100110011011101 ;
b1111 =
b100 C
1D
b10101010101110111100110011011101 E
b1111 F
1G
1H
0J
b1 M
b1 [

#140000
0!
0)

#145000
1!
1$
b1000 %
b10001001000100011001101000100 &
b10 '
b1010111010100100100100101010100010001010010000001010100011100100110000101101110011100110110000101100011011101000110100101101111011011100010000000110010 (
1)
1,
b1000 -
b10001001000100011001101000100 .
13
18
b1000 :
b10001001000100011001101000100 ;
b1000 C
1D
b10001001000100011001101000100 E
b1111 F
1G
1H
1J
1K
1L
b10 N
1S
1T
1X
1Y
b1 Z
b10 [
b1000 ]
b10001001000100011001101000100 ^
b1010111010100100100100101010100010001010010000001010100011100100110000101101110011100110110000101100011011101000110100101101111011011100010000000110010 _

#150000
0!
0)

#155000
1!
0$
1)
0,
03
14
05
07
08
b0 :
b0 ;
b0 =
b0 C
0D
b0 E
b0 F
0G
1H
0J
0K
0L
b10 M
b0 N
0S
0T
1V
0X
0Y
b10 Z
b0 [

#160000
0!
0)

#165000
1!
1)
04
06
0H
b0 M
0V
b0 Z

#170000
0!
0)

#175000
1!
1#
b100 %
b11 '
b10100100100010101000001010001000010000001010100011100100110000101101110011100110110000101100011011101000110100101101111011011100010000000110001 (
1)
1+
b100 -
1I
b11 N
b100 `
b10101010101110111100110011011101 a
b10100100100010101000001010001000010000001010100011100100110000101101110011100110110000101100011011101000110100101101111011011100010000000110001 b

#180000
0!
0)

#185000
1!
0#
1)
0+
11
12
b100 9
b100 @
1A
1B
0I
b11 M
b11 [

#190000
0!
0)

#195000
1!
1$
b1100 %
b1010101011001100111011110001000 &
b100 '
b1010111010100100100100101010100010001010010000001010100011100100110000101101110011100110110000101100011011101000110100101101111011011100010000000110011 (
1)
1,
b1100 -
b1010101011001100111011110001000 .
1/
b1100 9
b1100 @
1A
1B
1J
b100 N
1O
b11 Z
b100 [
b1100 ]
b1010101011001100111011110001000 ^
b1010111010100100100100101010100010001010010000001010100011100100110000101101110011100110110000101100011011101000110100101101111011011100010000000110011 _
b0 c

#200000
0!
0)

#205000
1!
0$
1)
0,
0/
10
01
b0 9
b0 @
0A
1B
0J
b100 M
b0 N
0O
1R
b1100 W
b100 Z
b0 [

#210000
0!
0)

#215000
1!
1)
00
02
0B
b0 M
0R
b0 Z

#220000
0!
0)

#225000
1!
1#
b1000 %
b101 '
b10100100100010101000001010001000010000001010100011100100110000101101110011100110110000101100011011101000110100101101111011011100010000000110010 (
1)
1+
b1000 -
1I
b11 N
b1000 `
b10001001000100011001101000100 a
b10100100100010101000001010001000010000001010100011100100110000101101110011100110110000101100011011101000110100101101111011011100010000000110010 b

#230000
0!
0)

#235000
1!
0#
1)
0+
11
12
b1000 9
b1000 @
1A
1B
0I
b11 M
b11 [

#240000
0!
0)

#245000
1!
1$
b10000 %
b10011001101010101011101111001100 &
b110 '
b1010111010100100100100101010100010001010010000001010100011100100110000101101110011100110110000101100011011101000110100101101111011011100010000000110100 (
1)
1,
b10000 -
b10011001101010101011101111001100 .
1/
b10000 9
b10000 @
1A
1B
1J
b100 N
1O
b11 Z
b100 [
b10000 ]
b10011001101010101011101111001100 ^
b1010111010100100100100101010100010001010010000001010100011100100110000101101110011100110110000101100011011101000110100101101111011011100010000000110100 _

#250000
0!
0)

#255000
1!
0$
1)
0,
0/
10
01
b0 9
b0 @
0A
1B
0J
b100 M
b0 N
0O
1R
b10000 W
b100 Z
b0 [

#260000
0!
0)

#265000
1!
1)
00
02
0B
b0 M
0R
b0 Z

#270000
0!
0)

#275000
1!
1)
b1010 d
b1000110011010010110111001100001011011000010000001001001010001000100110001000101001000000101000001101000011000010111001101100101 e
b0 f

#280000
0!
0)

#285000
1!
1)
b1 f

#290000
0!
0)

#295000
1!
1)
b10 f

#300000
0!
0)

#305000
1!
1)
b11 f

#310000
0!
0)

#315000
1!
1)
b100 f

#320000
0!
0)

#325000
1!
1)
b101 f

#330000
0!
0)

#335000
1!
1)
b110 f

#340000
0!
0)

#345000
1!
1)
b111 f

#350000
0!
0)

#355000
1!
1)
b1000 f

#360000
0!
0)

#365000
1!
1)
b1001 f

#370000
0!
0)

#375000
1!
1#
b100 %
b111 '
b1010110011001010111001001101001011001100111100100100000010000010110010001100100011100100110010101110011011100110010000000110000 (
1)
1+
b100 -
1I
b11 N
b100 `
b10101010101110111100110011011101 a
b1010110011001010111001001101001011001100111100100100000010000010110010001100100011100100110010101110011011100110010000000110000 b
b1010 f

#380000
0!
0)

#385000
1!
0#
1)
0+
11
12
b100 9
b100 @
1A
1B
0I
b11 M
b11 [

#390000
0!
0)

#395000
1!
1#
b1000 %
b1000 '
b1010110011001010111001001101001011001100111100100100000010000010110010001100100011100100110010101110011011100110010000000110001 (
1)
1+
b1000 -
1/
b1000 9
b1000 @
1A
1B
1I
b100 N
1O
b11 Z
b100 [
b1000 `
b10001001000100011001101000100 a
b1010110011001010111001001101001011001100111100100100000010000010110010001100100011100100110010101110011011100110010000000110001 b

#400000
0!
0)

#405000
1!
0#
1)
0+
0/
10
01
b0 9
b10001001000100011001101000100 <
b0 @
0A
1B
0I
b100 M
b0 N
0O
b10001001000100011001101000100 P
1R
b1000 W
b100 Z
b0 [

#410000
0!
0)

#415000
1!
1)
00
02
b0 <
0B
b0 M
b0 P
0R
b0 Z

#420000
0!
0)

#425000
1!
1#
b1100 %
b1001 '
b1010110011001010111001001101001011001100111100100100000010000010110010001100100011100100110010101110011011100110010000000110010 (
1)
1+
b1100 -
1I
b11 N
b1100 `
b1010101011001100111011110001000 a
b1010110011001010111001001101001011001100111100100100000010000010110010001100100011100100110010101110011011100110010000000110010 b

#430000
0!
0)

#435000
1!
0#
1)
0+
11
12
b1100 9
b1100 @
1A
1B
0I
b11 M
b11 [

#440000
0!
0)

#445000
1!
1#
b10000 %
b1010 '
b1010110011001010111001001101001011001100111100100100000010000010110010001100100011100100110010101110011011100110010000000110011 (
1)
1+
b10000 -
1/
b10000 9
b10000 @
1A
1B
1I
b100 N
1O
b11 Z
b100 [
b10000 `
b10011001101010101011101111001100 a
b1010110011001010111001001101001011001100111100100100000010000010110010001100100011100100110010101110011011100110010000000110011 b

#450000
0!
0)

#455000
1!
0#
1)
0+
0/
10
01
b0 9
b0 @
0A
1B
0I
b100 M
b0 N
0O
1R
b10000 W
b100 Z
b0 [

#460000
0!
0)

#465000
1!
1)
00
02
0B
b0 M
0R
b0 Z

